<svg width="57" height="61" viewBox="0 0 57 61" fill="none" xmlns="http://www.w3.org/2000/svg">
<path d="M56.4229 1.44799C56.4222 1.41736 56.421 1.38693 56.4183 1.35611C56.4162 1.33257 56.4132 1.30941 56.4101 1.28606C56.4067 1.26194 56.4036 1.23782 56.399 1.21371C56.3936 1.18442 56.3867 1.15571 56.3795 1.12681C56.3762 1.11398 56.3743 1.10097 56.3709 1.08795C56.3691 1.08221 56.3668 1.07685 56.3653 1.07111C56.3563 1.04048 56.346 1.01081 56.3353 0.981147C56.3289 0.963729 56.323 0.946122 56.3161 0.929087C56.3054 0.902673 56.2933 0.877025 56.2811 0.851185C56.2719 0.831661 56.2631 0.811945 56.2532 0.792804C56.2419 0.771558 56.2296 0.751268 56.2174 0.730788C56.2045 0.708967 56.1919 0.686958 56.1779 0.665903C56.1666 0.648868 56.1544 0.632789 56.1425 0.616328C56.1261 0.593551 56.11 0.570774 56.0924 0.549145C56.0801 0.534024 56.0667 0.519858 56.0539 0.50512C56.0353 0.484256 56.0171 0.463011 55.9976 0.443296C55.9819 0.427409 55.9653 0.412672 55.9488 0.397743C55.9308 0.38109 55.9132 0.364053 55.8945 0.348358C55.8732 0.330366 55.8508 0.314288 55.8288 0.297635C55.8137 0.286342 55.7989 0.274478 55.7836 0.263759C55.7565 0.245001 55.7279 0.227773 55.6996 0.210738C55.6879 0.203847 55.6766 0.196192 55.6648 0.189493C55.6338 0.172075 55.6016 0.156569 55.5693 0.141256C55.5587 0.13628 55.5484 0.130731 55.5377 0.125946C55.5061 0.111974 55.4735 0.0999138 55.4406 0.088238C55.4278 0.0836442 55.4154 0.0784767 55.4023 0.0742657C55.3731 0.0646954 55.343 0.0568484 55.313 0.0491921C55.2953 0.0445984 55.2777 0.0394292 55.2598 0.0354097C55.2343 0.0298589 55.2085 0.0256483 55.1826 0.0214374C55.1589 0.0176093 55.1355 0.013397 55.1116 0.0105259C55.0898 0.00803766 55.0676 0.00669784 55.0454 0.00516659C55.0172 0.00306112 54.9891 0.00134078 54.9608 0.000957966C54.9539 0.00076656 54.9474 0 54.9405 0C54.9256 0 54.9108 0.0019128 54.8961 0.00229561C54.8687 0.00325264 54.8411 0.00421028 54.8136 0.00650716C54.7877 0.00880403 54.7625 0.0122501 54.737 0.0156955C54.7146 0.018758 54.6924 0.0218193 54.6698 0.0258388C54.6398 0.0313896 54.6103 0.0382809 54.581 0.0457458C54.5684 0.0489997 54.5558 0.0507236 54.5431 0.0541689L18.9056 9.95447C18.8998 9.95619 18.8945 9.95848 18.8887 9.96001C18.8581 9.96882 18.8284 9.97935 18.7988 9.99006C18.7814 9.99638 18.7637 10.0023 18.7467 10.0092C18.7205 10.0199 18.6948 10.032 18.6692 10.044C18.6495 10.0532 18.6296 10.0622 18.6104 10.0722C18.5898 10.0833 18.5699 10.0953 18.5498 10.1072C18.5274 10.1204 18.5048 10.1334 18.4833 10.1476C18.4674 10.1583 18.4521 10.1698 18.4366 10.1811C18.4129 10.1981 18.3892 10.2152 18.3666 10.2335C18.353 10.2446 18.3404 10.2565 18.3271 10.268C18.3046 10.2879 18.2818 10.3076 18.2605 10.3287C18.247 10.3421 18.2345 10.3564 18.2215 10.3704C18.2025 10.3909 18.1832 10.411 18.1652 10.4322C18.1503 10.45 18.1367 10.469 18.1225 10.4873C18.1084 10.5061 18.0936 10.5243 18.0804 10.5436C18.0647 10.5664 18.0508 10.5901 18.0362 10.6139C18.0263 10.6303 18.0155 10.6464 18.0062 10.6632C17.9916 10.6893 17.979 10.7161 17.966 10.7431C17.9583 10.7589 17.9501 10.7746 17.9428 10.7909C17.9313 10.8171 17.9216 10.8443 17.9116 10.8713C17.9047 10.8899 17.8974 10.9079 17.8913 10.9266C17.8837 10.9505 17.8773 10.9752 17.8706 10.9997C17.8643 11.0229 17.8578 11.0459 17.8527 11.0694C17.8483 11.0899 17.8452 11.1108 17.8416 11.1314C17.8366 11.1599 17.8316 11.1887 17.8283 11.2176C17.8262 11.2352 17.8255 11.253 17.8241 11.2706C17.8216 11.3029 17.8195 11.3353 17.8192 11.368C17.819 11.3737 17.8182 11.3791 17.8182 11.3848V42.2594C16.7232 41.5218 15.4342 41.125 14.0842 41.125C12.7522 41.125 11.4796 41.5108 10.3939 42.2296C9.30828 41.5108 8.03562 41.125 6.70381 41.125C4.91302 41.125 3.2296 41.8223 1.96345 43.0886C0.697293 44.355 3.93843e-08 46.0384 3.93843e-08 47.829C-0.000191367 49.6198 0.697293 51.303 1.96345 52.5691L9.34407 59.9498C9.62238 60.2283 10.0002 60.3847 10.3939 60.3847C10.7878 60.3847 11.1655 60.2283 11.4438 59.9498L18.824 52.5693C20.0885 51.3053 20.7854 49.6251 20.7877 47.8376C20.7877 47.8368 20.7879 47.8361 20.7879 47.8353V47.8328C20.7879 47.8315 20.7881 47.8301 20.7881 47.8288C20.7881 47.8276 20.7879 47.8263 20.7879 47.825V22.4123L55.3367 12.8143C55.3421 12.8127 55.347 12.8106 55.3524 12.8091C55.3842 12.7999 55.4152 12.7892 55.446 12.7779C55.4623 12.772 55.4789 12.7664 55.495 12.7601C55.5224 12.749 55.5488 12.7366 55.5754 12.7239C55.5941 12.7149 55.6133 12.7065 55.6315 12.6969C55.6531 12.6854 55.6736 12.673 55.6944 12.6606C55.7163 12.6477 55.7381 12.6353 55.7587 12.6215C55.7754 12.6104 55.7911 12.5985 55.8074 12.5869C55.8305 12.5702 55.8537 12.5536 55.8759 12.5356C55.8901 12.5241 55.9031 12.5118 55.9167 12.4998C55.9389 12.4805 55.9611 12.4609 55.9821 12.4404C55.9959 12.4267 56.0087 12.4121 56.0221 12.398C56.0409 12.3777 56.06 12.358 56.0776 12.3369C56.0927 12.3189 56.1063 12.3 56.1207 12.2812C56.1349 12.2626 56.1492 12.2444 56.1626 12.2253C56.1783 12.2023 56.1925 12.1784 56.207 12.1547C56.2168 12.1384 56.2275 12.1223 56.2367 12.1057C56.2512 12.0796 56.2641 12.0527 56.2771 12.0257C56.2847 12.0098 56.293 11.9941 56.3002 11.978C56.3117 11.9518 56.3215 11.9246 56.3314 11.8976C56.3383 11.8791 56.3456 11.8611 56.3517 11.8423C56.3594 11.8184 56.3657 11.7937 56.3724 11.7692C56.3787 11.746 56.3852 11.7231 56.3904 11.6995C56.3948 11.679 56.3979 11.6582 56.4015 11.6375C56.4065 11.609 56.4113 11.5803 56.4147 11.5514C56.4168 11.5338 56.4176 11.516 56.4189 11.4983C56.4214 11.466 56.4235 11.4337 56.4239 11.4009C56.4241 11.3952 56.4248 11.3898 56.4248 11.3841V1.48569C56.4248 1.47325 56.4233 1.46081 56.4229 1.44799ZM17.8182 47.8309C17.8178 48.8275 17.4293 49.7645 16.7243 50.4692L10.3939 56.8L4.06336 50.4692C3.35803 49.7641 2.96967 48.8264 2.96967 47.8292C2.96967 46.8318 3.35803 45.8941 4.06336 45.1889C4.7687 44.4836 5.70639 44.095 6.70381 44.095C7.70123 44.095 8.63874 44.4834 9.34369 45.1887C9.62218 45.4672 9.99983 45.6238 10.3937 45.6238H10.3939C10.7878 45.6238 11.1655 45.4674 11.444 45.1889C12.1493 44.4836 13.087 44.095 14.0842 44.095C15.0815 44.095 16.0192 44.4834 16.7245 45.1891C17.4293 45.8937 17.8178 46.8304 17.8182 47.8271V47.8309ZM53.4544 10.2552L20.7879 19.3305V12.5139L53.4544 3.43919V10.2552Z" fill="#BED8D4"/>
<path d="M54.9391 15.5161C54.1189 15.5161 53.4542 16.1809 53.4542 17.001V35.9974C52.359 35.2595 51.0702 34.8629 49.7202 34.8629C48.3882 34.8629 47.1156 35.2488 46.0299 35.9675C44.9443 35.2486 43.6716 34.8629 42.3396 34.8629C40.5488 34.8629 38.8654 35.5602 37.5994 36.8265C36.3333 38.0925 35.6358 39.7759 35.6358 41.5665C35.6356 43.3573 36.3331 45.0405 37.5992 46.3067L44.9799 53.6875C45.2584 53.966 45.636 54.1224 46.0297 54.1224C46.4236 54.1224 46.8013 53.966 47.0796 53.6875L54.4598 46.3069C55.7241 45.0428 56.4212 43.3629 56.4235 41.5755C56.4235 41.5747 56.4237 41.574 56.4237 41.5732V41.5707C56.4237 41.5694 56.4239 41.568 56.4239 41.5667C56.4242 41.565 56.424 41.5638 56.424 41.5623V17.001C56.424 16.1811 55.7593 15.5161 54.9391 15.5161ZM53.4544 41.5684C53.454 42.5651 53.0654 43.5018 52.3605 44.2066L46.0301 50.5373L39.6995 44.2066C38.9942 43.5014 38.6059 42.5637 38.6059 41.5663C38.6059 40.5689 38.9942 39.6314 39.6995 38.9262C40.4047 38.2209 41.3424 37.8326 42.3398 37.8326C43.3372 37.8326 44.2749 38.2209 44.9801 38.9262C45.2586 39.2047 45.6362 39.3613 46.0301 39.3613C46.424 39.3613 46.8017 39.2047 47.0802 38.9262C47.7853 38.2209 48.723 37.8326 49.7204 37.8326C50.7178 37.8326 51.6554 38.2209 52.3607 38.9266C53.0654 39.6312 53.4538 40.5679 53.4544 41.5644V41.5684Z" fill="#BED8D4"/>
</svg>
